"degree","num.data"
"1",8337
"2",4422
"3",3055
"4",2236
"5",1676
"6",1411
"7",1070
"8",951
"9",746
"10",663
"11",567
"12",556
"13",437
"14",433
"15",385
"16",326
"17",346
"18",325
"19",251
"20",226
"21",225
"22",187
"23",172
"24",164
"25",158
"26",139
"27",137
"28",122
"29",121
"30",123
"31",111
"32",106
"33",97
"34",82
"35",76
"36",78
"37",73
"38",66
"39",61
"40",74
"41",52
"42",54
"43",52
"44",54
"45",54
"46",63
"47",50
"48",67
"49",47
"50",44
"51",33
"52",43
"53",43
"54",40
"55",41
"56",32
"57",30
"58",27
"59",38
"60",40
"61",32
"62",20
"63",23
"64",27
"65",26
"66",15
"67",20
"68",27
"69",23
"70",24
"71",22
"72",23
"73",21
"74",25
"75",14
"76",17
"77",14
"78",11
"79",11
"80",16
"81",20
"82",13
"83",11
"84",17
"85",12
"86",11
"87",10
"88",16
"89",8
"90",13
"91",16
"92",5
"93",11
"94",17
"95",6
"96",13
"97",10
"98",19
"99",14
"100",11
"101",8
"102",11
"103",12
"104",7
"105",8
"106",7
"107",10
"108",9
"109",9
"110",16
"111",6
"112",7
"113",2
"114",8
"115",5
"116",7
"117",5
"118",6
"119",5
"120",4
"121",7
"122",8
"123",7
"124",4
"125",6
"126",1
"127",5
"128",8
"129",8
"130",3
"131",5
"132",11
"133",5
"134",6
"135",6
"137",4
"138",2
"139",7
"140",6
"141",2
"142",3
"143",5
"145",2
"147",2
"148",1
"149",2
"150",6
"151",2
"152",3
"153",5
"154",2
"155",1
"156",2
"157",5
"158",3
"159",1
"160",3
"161",1
"162",3
"163",1
"164",2
"165",5
"166",6
"167",1
"168",2
"169",3
"170",2
"171",1
"172",1
"173",5
"174",4
"175",1
"176",3
"177",1
"178",4
"179",2
"180",1
"181",2
"182",3
"183",4
"184",3
"185",3
"186",2
"188",2
"190",2
"191",3
"192",3
"193",4
"194",1
"195",1
"196",1
"197",1
"200",1
"202",1
"203",1
"204",3
"206",3
"207",1
"209",2
"210",3
"212",1
"213",2
"214",1
"215",1
"218",1
"219",2
"221",1
"222",1
"224",1
"226",3
"227",1
"228",1
"229",1
"232",1
"236",1
"238",2
"239",2
"241",1
"242",1
"243",1
"244",4
"245",1
"246",2
"247",1
"249",1
"250",2
"253",1
"254",2
"255",1
"257",1
"258",1
"261",3
"262",2
"265",1
"268",1
"272",1
"275",2
"276",1
"277",1
"279",2
"282",1
"285",1
"286",2
"292",1
"296",2
"298",2
"300",2
"304",1
"309",1
"313",1
"314",1
"321",2
"330",2
"331",1
"332",1
"335",1
"336",1
"339",1
"345",1
"349",1
"352",1
"354",1
"355",1
"358",1
"360",2
"361",1
"362",1
"368",1
"369",1
"376",1
"378",2
"387",1
"391",1
"393",1
"404",1
"406",1
"408",2
"414",1
"432",1
"433",1
"436",1
"438",1
"454",1
"468",1
"475",1
"482",1
"495",1
"497",1
"587",1
"610",1
"643",1
"671",1
"1367",1
